<?xml version="1.0" encoding="UTF-8" standalone="no"?>
<!-- Generator: Adobe Illustrator 13.0.3, SVG Export Plug-In . SVG Version: 6.00 Build 14948)  -->

<svg
   xmlns:dc="http://purl.org/dc/elements/1.1/"
   xmlns:cc="http://creativecommons.org/ns#"
   xmlns:rdf="http://www.w3.org/1999/02/22-rdf-syntax-ns#"
   xmlns:svg="http://www.w3.org/2000/svg"
   xmlns="http://www.w3.org/2000/svg"
   xmlns:sodipodi="http://sodipodi.sourceforge.net/DTD/sodipodi-0.dtd"
   xmlns:inkscape="http://www.inkscape.org/namespaces/inkscape"
   version="1.1"
   id="レイヤー_1"
   x="0px"
   y="0px"
   width="76px"
   height="76px"
   viewBox="0 0 76 76"
   enable-background="new 0 0 76 76"
   xml:space="preserve"
   sodipodi:docname="buttonSmile.svg"
   inkscape:version="0.92.3 (2405546, 2018-03-11)"><metadata
   id="metadata14"><rdf:RDF><cc:Work
       rdf:about=""><dc:format>image/svg+xml</dc:format><dc:type
         rdf:resource="http://purl.org/dc/dcmitype/StillImage" /><dc:title></dc:title></cc:Work></rdf:RDF></metadata><defs
   id="defs12" /><sodipodi:namedview
   pagecolor="#ffffff"
   bordercolor="#666666"
   borderopacity="1"
   objecttolerance="10"
   gridtolerance="10"
   guidetolerance="10"
   inkscape:pageopacity="0"
   inkscape:pageshadow="2"
   inkscape:window-width="1916"
   inkscape:window-height="1032"
   id="namedview10"
   showgrid="false"
   inkscape:zoom="0.54893816"
   inkscape:cx="-245.22472"
   inkscape:cy="-148.81748"
   inkscape:window-x="0"
   inkscape:window-y="46"
   inkscape:window-maximized="0"
   inkscape:current-layer="レイヤー_1" />
<g
   id="g7">
	<g
   id="g5">
		<path
   id="rect1313_65_"
   fill="#FDFCFD"
   d="M0.009,0h75.982C75.996,0,76,0.004,76,0.009V75.99c0,0.006-0.004,0.01-0.009,0.01H0.009    C0.004,76,0,75.996,0,75.99V0.009C0,0.004,0.004,0,0.009,0z" />
		<path
   id="path1341_65_"
   fill="#757575"
   d="M75.99,0C75.995,0,76,0.005,76,0.01v75.981C76,75.996,75.995,76,75.99,76H0.009    C0.004,76,0,75.996,0,75.991L75.99,0z" />
		<polygon
   id="rect1311_65_"
   fill="#B9B9B9"
   points="8.508,8.5 67.492,8.5 67.5,8.508 67.5,67.491 67.492,67.5 8.508,67.5     8.5,67.491 8.5,8.508   " />
	</g>
</g>
<g
   id="svgg"
   transform="matrix(0.14721724,0,0,0.1455094,8.5431433,8.8145238)"><path
     style="fill:#fcdc0c;fill-rule:evenodd;stroke:none"
     inkscape:connector-curvature="0"
     id="path0"
     d="M 141.106,35.3 141,47 117.6,47.2 94.2,47.4 94,59 93.8,70.6 82.306,70.706 70.812,70.812 70.706,82.306 70.6,93.8 59,94 47.4,94.2 47.2,117.6 47,141 35.3,141.106 23.6,141.212 V 200 258.788 l 11.7,0.106 11.7,0.106 0.103,23.494 0.103,23.494 11.697,0.106 11.697,0.106 0.2,11.6 0.2,11.6 11.494,0.106 11.494,0.106 0.106,11.494 0.106,11.494 23.4,0.2 23.4,0.2 0.106,11.7 0.106,11.7 h 58.794 58.794 v -11.557 c 0,-10.17 0.076,-11.587 0.633,-11.8 0.348,-0.134 10.968,-0.243 23.6,-0.243 H 306 v -11.594 -11.594 l 11.7,-0.106 11.7,-0.106 0.106,-11.7 0.106,-11.7 h 11.594 11.594 v -22.967 c 0,-12.632 0.109,-23.252 0.243,-23.6 0.213,-0.557 1.63,-0.633 11.8,-0.633 H 376.4 V 200.006 141.212 L 364.7,141.106 353,141 352.8,117.6 352.6,94.2 341.106,94.094 329.612,93.988 329.506,82.494 329.4,71 317.8,70.8 306.2,70.6 306.094,58.903 305.988,47.206 282.494,47.103 259,47 258.894,35.3 258.788,23.6 H 200 141.212 l -0.106,11.7 M 164.6,141.2 v 23.4 h -23.4 -23.4 l -0.104,-23 c -0.057,-12.65 -0.017,-23.226 0.089,-23.503 0.152,-0.398 5.067,-0.482 23.504,-0.4 L 164.6,117.8 v 23.4 m 117.6,0 v 23.4 h -23.4 -23.4 l -0.104,-23 c -0.057,-12.65 -0.017,-23.226 0.089,-23.503 0.152,-0.398 5.067,-0.482 23.504,-0.4 L 282.2,117.8 v 23.4 m -188.294,82.294 0.106,11.694 11.694,0.106 11.694,0.106 0.106,11.7 0.106,11.7 H 200 282.388 l 0.106,-11.7 0.106,-11.7 11.694,-0.106 11.694,-0.106 0.106,-11.694 0.106,-11.694 11.151,-0.106 c 7.964,-0.076 11.31,0.025 11.706,0.354 0.454,0.376 0.536,2.508 0.449,11.706 L 329.4,235 l -11.694,0.106 -11.694,0.106 -0.106,11.694 -0.106,11.694 -11.694,0.106 -11.694,0.106 -0.106,11.694 L 282.2,282.2 H 200 117.8 l -0.106,-11.694 -0.106,-11.694 -11.694,-0.106 L 94.2,258.6 94.094,246.906 93.988,235.212 82.294,235.106 70.6,235 70.494,223.849 c -0.076,-7.964 0.025,-11.31 0.354,-11.706 0.376,-0.454 2.508,-0.536 11.706,-0.449 l 11.246,0.106 0.106,11.694" /><path
     style="fill:#040404;fill-rule:evenodd;stroke:none"
     inkscape:connector-curvature="0"
     id="path1"
     d="M 140.8,11.6 V 23.2 H 117.2 93.6 V 34.8 46.4 H 81.8 70 V 58.2 70 H 58.2 46.4 V 81.8 93.6 H 34.8 23.2 v 23.6 23.6 H 11.6 0 v 59.4 59.4 H 11.6 23.2 V 283 306.4 H 34.8 46.4 V 318.2 330 H 58.2 70 v 11.8 11.8 h 11.8 11.8 v 11.8 11.8 h 23.6 23.6 v 11.4 11.4 h 59.4 59.4 V 388.6 377.2 H 283 306.4 V 365.4 353.6 H 318.2 330 V 341.8 330 h 11.8 11.8 v -11.8 -11.8 h 11.8 11.8 V 283 259.6 H 388.6 400 V 200.2 140.8 H 388.6 377.2 V 117.2 93.6 H 365.4 353.6 V 81.8 70 H 341.8 330 V 58.2 46.4 H 318.2 306.4 V 34.8 23.2 H 283 259.6 V 11.6 0 H 200.2 140.8 V 11.6 M 258.894,35.3 259,47 l 23.494,0.103 23.494,0.103 0.106,11.697 0.106,11.697 11.6,0.2 11.6,0.2 0.106,11.494 0.106,11.494 11.494,0.106 11.494,0.106 0.2,23.4 0.2,23.4 11.7,0.106 11.7,0.106 v 58.794 58.794 h -11.557 c -10.17,0 -11.587,0.076 -11.8,0.633 -0.134,0.348 -0.243,10.968 -0.243,23.6 V 306 h -11.594 -11.594 l -0.106,11.7 -0.106,11.7 -11.7,0.106 -11.7,0.106 v 11.594 11.594 h -22.967 c -12.632,0 -23.252,0.109 -23.6,0.243 -0.557,0.213 -0.633,1.63 -0.633,11.8 V 376.4 H 200.006 141.212 L 141.106,364.7 141,353 117.6,352.8 94.2,352.6 94.094,341.106 93.988,329.612 82.494,329.506 71,329.4 70.8,317.8 70.6,306.2 58.903,306.094 47.206,305.988 47.103,282.494 47,259 35.3,258.894 23.6,258.788 V 200 141.212 L 35.3,141.106 47,141 47.2,117.6 47.4,94.2 59,94 70.6,93.8 70.706,82.306 70.812,70.812 82.306,70.706 93.8,70.6 94,59 94.2,47.4 117.6,47.2 141,47 141.106,35.3 141.212,23.6 H 200 258.788 l 0.106,11.7 m -141.109,82.797 c -0.106,0.277 -0.146,10.853 -0.089,23.503 l 0.104,23 h 23.4 23.4 v -23.4 -23.4 l -23.311,-0.103 c -18.437,-0.082 -23.352,0.002 -23.504,0.4 m 117.6,0 c -0.106,0.277 -0.146,10.853 -0.089,23.503 l 0.104,23 h 23.4 23.4 v -23.4 -23.4 l -23.311,-0.103 c -18.437,-0.082 -23.352,0.002 -23.504,0.4 M 70.848,212.143 c -0.329,0.396 -0.43,3.742 -0.354,11.706 L 70.6,235 l 11.694,0.106 11.694,0.106 0.106,11.694 0.106,11.694 11.694,0.106 11.694,0.106 0.106,11.694 0.106,11.694 h 82.2 82.2 l 0.106,-11.694 0.106,-11.694 11.694,-0.106 11.694,-0.106 0.106,-11.694 0.106,-11.694 11.694,-0.106 11.694,-0.106 0.106,-11.246 c 0.087,-9.198 0.005,-11.33 -0.449,-11.706 -0.396,-0.329 -3.742,-0.43 -11.706,-0.354 l -11.151,0.106 -0.106,11.694 -0.106,11.694 -11.694,0.106 -11.694,0.106 -0.106,11.7 -0.106,11.7 H 200 117.612 L 117.506,247.1 117.4,235.4 105.706,235.294 94.012,235.188 93.906,223.494 93.8,211.8 82.554,211.694 c -9.198,-0.087 -11.33,-0.005 -11.706,0.449" /></g></svg>